{
  "swagger": "3.0",
  "info": {
    "description": "This is player's API",
    "version": "1.0.0",
    "title": "Player",
    "contact": {
      "email": "player@mail.com"
    }
  },
  "host": "localhost",
  "basePath": "/api",
  "tags": [
    {
      "name": "player",
      "description": "About Player"
    }
  ],
  "schemes": [
    "https",
    "http"
  ],
  "paths": {
    "/players": {
      "post": {
        "tags": [
          "player"
        ],
        "summary": "Create a new player",
        "description": "create new",
        "consumes": [
          "application/json"
        ],
        "produces": [
          "application/json"
        ],
        "parameters": [
          {
            "name": "body",
            "in": "body",
            "description": "",
            "required": true,
            "schema": {
              "type": "object",
              "properties": {
                "username": {
                  "type": "string",
                  "example": "yourusername"
                },
                "email": {
                  "type": "string",
                  "example": "youremail@email.com"
                },
                "password": {
                  "type": "string",
                  "example": "yourpassword"
                }
              }
            }
          }
        ],
        "responses": {
          "201": {
            "description": "SUCCESS"
          },
          "400": {
            "description": "FAILED username or email or password cannot be empty"
          }
        }
      },
      "get": {
        "tags": [
          "player"
        ],
        "summary": "Get all player",
        "description": "Get all player",
        "consumes": [
          "application/json"
        ],
        "produces": [
          "application/json"
        ],
        "parameters": [
          {
            "name": "username",
            "in": "query",
            "description": "",
            "required": false,
            "type": "string"
          },
          {
            "name": "email",
            "in": "query",
            "description": "",
            "required": false,
            "type": "string"
          },
          {
            "name": "experience",
            "in": "query",
            "description": "",
            "required": false,
            "type": "string"
          },
          {
            "name": "lvl",
            "in": "query",
            "description": "",
            "required": false,
            "type": "string"
          }
        ],
        "responses": {
          "200": {
            "description": "SUCCESS"
          },
          "500": {
            "description": "Some error occurred while retrieving players"
          }
        }
      }
    },
    "/players/{id}": {
      "get": {
        "tags": [
          "player"
        ],
        "summary": "Find by ID",
        "description": "Returns a single player",
        "consumes": [
          "application/json"
        ],
        "produces": [
          "application/json"
        ],
        "parameters": [
          {
            "name": "id",
            "in": "path",
            "required": true,
            "type": "integer"
          }
        ],
        "responses": {
          "200": {
            "description": "SUCCESS"
          },
          "500": {
            "description": "Error retrieving Player"
          }
        }
      },
      "put": {
        "tags": [
          "player"
        ],
        "summary": "Updated player",
        "description": "",
        "produces": [
          "application/xml",
          "application/json"
        ],
        "parameters": [
          {
            "name": "id",
            "in": "path",
            "description": "to update player",
            "required": true,
            "type": "integer"
          },
          {
            "in": "body",
            "name": "body",
            "description": "Updated player detail",
            "required": true,
            "schema": {
              "type": "object",
              "properties": {
                "username": {
                  "type": "string",
                  "example": "yourusername"
                },
                "email": {
                  "type": "string",
                  "example": "youremail@email.com"
                },
                "password": {
                  "type": "string",
                  "example": "yourpassword"
                }
              }
            }
          }
        ],
        "responses": {
          "200": {
            "description": "Player update succesfully"
          },
          "400": {
            "description": "failed. player not found"
          },
          "500": {
            "description": "error update player"
          }
        }
      },
      "delete": {
        "tags": [
          "player"
        ],
        "summary": "Delete player",
        "description": "",
        "produces": [
          "application/json"
        ],
        "parameters": [
          {
            "name": "id",
            "in": "path",
            "description": "To delete player",
            "required": true,
            "type": "integer"
          }
        ],
        "responses": {
          "200": {
            "description": "Player was deleted succesfully"
          },
          "400": {
            "description": "Cannot delete. player not found"
          },
          "500": {
            "description": "FAILED"
          }
        }
      }
    },
    "/players/exp/{id}": {
      "post": {
        "tags": [
          "player"
        ],
        "summary": "To add player experience",
        "description": "",
        "produces": [
          "application/json"
        ],
        "parameters": [
          {
            "name": "id",
            "in": "path",
            "description": "to added experince in player id",
            "required": true,
            "type": "integer"
          },
          {
            "in": "body",
            "name": "body",
            "description": "",
            "required": true,
            "schema": {
              "type": "object",
              "properties": {
                "exp": {
                  "type": "integer",
                  "example": 1
                }
              }
            }
          }
        ],
        "responses": {
          "200": {
            "description": "success. player has more experience"
          },
          "400": {
            "description": "failed. cannot update player"
          },
          "500": {
            "description": "error update player experience"
          }
        }
      }
    }
  }
}
